<svg xmlns="http://www.w3.org/2000/svg" xmlns:xlink="http://www.w3.org/1999/xlink" width="159.5" height="147.477" viewBox="0 0 159.5 147.477">
  <defs>
    <style>
      .cls-1, .cls-5 {
        fill: none;
      }

      .cls-2 {
        fill: #fff;
        stroke: #fff;
        stroke-width: 5px;
      }

      .cls-3, .cls-4 {
        stroke: none;
      }

      .cls-4 {
        fill: #fff;
      }

      .cls-6 {
        filter: url(#Ellipse_4);
      }

      .cls-7 {
        filter: url(#Path_15);
      }
    </style>
    <filter id="Path_15" x="0" y="0" width="159.5" height="147.477" filterUnits="userSpaceOnUse">
      <feOffset dy="3" input="SourceAlpha"/>
      <feGaussianBlur stdDeviation="3" result="blur"/>
      <feFlood flood-opacity="0.161"/>
      <feComposite operator="in" in2="blur"/>
      <feComposite in="SourceGraphic"/>
    </filter>
    <filter id="Ellipse_4" x="45.75" y="24" width="69" height="69" filterUnits="userSpaceOnUse">
      <feOffset dy="3" input="SourceAlpha"/>
      <feGaussianBlur stdDeviation="3" result="blur-2"/>
      <feFlood flood-opacity="0.161"/>
      <feComposite operator="in" in2="blur-2"/>
      <feComposite in="SourceGraphic"/>
    </filter>
  </defs>
  <g id="Group_38" data-name="Group 38" transform="translate(-118.375 -2424.523)">
    <g class="cls-7" transform="matrix(1, 0, 0, 1, 118.38, 2424.52)">
      <g id="Path_15-2" data-name="Path 15" class="cls-1" transform="translate(9 6)">
        <path class="cls-3" d="M70.75,0a70.755,70.755,0,0,1,40.738,128.6C100.1,136.682,125.06,86.14,70.75,86.14c-53.546,0-29.57,50.468-41.338,42.033A70.754,70.754,0,0,1,70.75,0Z"/>
        <path class="cls-4" d="M 70.75 7 C 35.59812164306641 7 7 35.59812927246094 7 70.75000762939453 C 7 88.21232604980469 14.17922973632812 104.8271560668945 26.63986968994141 116.7747650146484 C 27.521728515625 103.1919555664062 32.59901428222656 79.14020538330078 70.75 79.14020538330078 C 85.98184967041016 79.14020538330078 97.47605133056641 82.91960144042969 104.9133453369141 90.37342834472656 C 112.9495697021484 98.427490234375 114.5518264770508 108.7513427734375 114.8620452880859 116.7383270263672 C 127.2954940795898 104.7524948120117 134.5 88.1541748046875 134.5 70.75000762939453 C 134.5 35.59812927246094 105.9018707275391 7 70.75 7 M 70.75 0 C 109.8241500854492 0 141.5 31.67585754394531 141.5 70.75000762939453 C 141.5 94.58523559570312 129.7134246826172 115.6675796508789 111.487548828125 128.6019287109375 C 100.1025238037109 136.6821136474609 125.0603485107422 86.14020538330078 70.75 86.14020538330078 C 17.20389556884766 86.14019775390625 41.18025970458984 136.6076507568359 29.41182708740234 128.1735382080078 C 11.67092895507812 115.4601287841797 0 94.46800231933594 0 70.75000762939453 C 0 31.67585754394531 31.67584991455078 0 70.75 0 Z"/>
      </g>
    </g>
    <g class="cls-6" transform="matrix(1, 0, 0, 1, 118.38, 2424.52)">
      <g id="Ellipse_4-2" data-name="Ellipse 4" class="cls-2" transform="translate(54.75 30)">
        <circle class="cls-3" cx="25.5" cy="25.5" r="25.5"/>
        <circle class="cls-5" cx="25.5" cy="25.5" r="23"/>
      </g>
    </g>
  </g>
</svg>
