<svg xmlns="http://www.w3.org/2000/svg" xmlns:xlink="http://www.w3.org/1999/xlink" width="254" height="366" viewBox="0 0 254 366">
  <defs>
    <style>
      .cls-1, .cls-2 {
        fill: rgba(76,115,151,0.28);
      }

      .cls-1, .cls-4 {
        stroke-linecap: round;
        stroke-linejoin: round;
      }

      .cls-3 {
        fill: #fff;
      }

      .cls-4 {
        fill: none;
      }

      .cls-5, .cls-6 {
        stroke: none;
      }

      .cls-6 {
        fill: #59acf5;
      }

      .cls-7 {
        filter: url(#Path_43);
      }

      .cls-8 {
        filter: url(#Path_42);
      }

      .cls-9 {
        filter: url(#Path_5);
      }

      .cls-10 {
        filter: url(#Ellipse_2);
      }

      .cls-11 {
        filter: url(#Path_6);
      }

      .cls-12 {
        filter: url(#Path_3-2);
      }

      .cls-13 {
        filter: url(#Path_3);
      }
    </style>
    <filter id="Path_3" x="0" y="0" width="254" height="366" filterUnits="userSpaceOnUse">
      <feOffset dy="6" input="SourceAlpha"/>
      <feGaussianBlur stdDeviation="5" result="blur"/>
      <feFlood flood-opacity="0.412"/>
      <feComposite operator="in" in2="blur"/>
    </filter>
    <filter id="Path_3-2" x="0" y="0" width="254" height="366" filterUnits="userSpaceOnUse">
      <feOffset dy="3" input="SourceAlpha"/>
      <feGaussianBlur stdDeviation="3" result="blur-2"/>
      <feFlood flood-opacity="0.045" result="color"/>
      <feComposite operator="out" in="SourceGraphic" in2="blur-2"/>
      <feComposite operator="in" in="color"/>
      <feComposite operator="in" in2="SourceGraphic"/>
    </filter>
    <filter id="Path_6" x="46.866" y="242.866" width="42.134" height="42.134" filterUnits="userSpaceOnUse">
      <feOffset dy="3" input="SourceAlpha"/>
      <feGaussianBlur stdDeviation="3" result="blur-3"/>
      <feFlood flood-opacity="0.349"/>
      <feComposite operator="in" in2="blur-3"/>
      <feComposite in="SourceGraphic"/>
    </filter>
    <filter id="Ellipse_2" x="163" y="245" width="40" height="40" filterUnits="userSpaceOnUse">
      <feOffset dy="3" input="SourceAlpha"/>
      <feGaussianBlur stdDeviation="3" result="blur-4"/>
      <feFlood flood-opacity="0.341"/>
      <feComposite operator="in" in2="blur-4"/>
      <feComposite in="SourceGraphic"/>
    </filter>
    <filter id="Path_5" x="100.832" y="249.429" width="52.335" height="53.141" filterUnits="userSpaceOnUse">
      <feOffset dy="3" input="SourceAlpha"/>
      <feGaussianBlur stdDeviation="3" result="blur-5"/>
      <feFlood flood-opacity="0.361"/>
      <feComposite operator="in" in2="blur-5"/>
      <feComposite in="SourceGraphic"/>
    </filter>
    <filter id="Path_42" x="100.582" y="254" width="52.335" height="25.01" filterUnits="userSpaceOnUse">
      <feOffset dy="3" input="SourceAlpha"/>
      <feGaussianBlur stdDeviation="3" result="blur-6"/>
      <feFlood flood-opacity="0.361"/>
      <feComposite operator="in" in2="blur-6"/>
      <feComposite in="SourceGraphic"/>
    </filter>
    <filter id="Path_43" x="100.582" y="241.47" width="52.835" height="50.069" filterUnits="userSpaceOnUse">
      <feOffset dy="3" input="SourceAlpha"/>
      <feGaussianBlur stdDeviation="3" result="blur-7"/>
      <feFlood flood-opacity="0.361"/>
      <feComposite operator="in" in2="blur-7"/>
      <feComposite in="SourceGraphic"/>
    </filter>
  </defs>
  <g id="Group_40" data-name="Group 40" transform="translate(536 669)">
    <g id="Droplet" transform="translate(-521 -660)">
      <g data-type="innerShadowGroup">
        <g class="cls-13" transform="matrix(1, 0, 0, 1, -15, -9)">
          <g id="Path_3-3" data-name="Path 3" class="cls-1" transform="translate(15 103)">
            <path class="cls-5" d="M 111.9998321533203 240.4996032714844 C 104.5026016235352 240.4996032714844 97.01051330566406 239.7365112304688 89.73169708251953 238.2315216064453 C 82.63846588134766 236.7649230957031 75.66123962402344 234.5765228271484 68.99391937255859 231.7271118164062 C 62.44705963134766 228.9291534423828 56.13237762451172 225.4659729003906 50.22537612915039 221.4336547851562 C 44.37378692626953 217.4392395019531 38.8711051940918 212.8517913818359 33.87015151977539 207.7987365722656 C 28.86896896362305 202.7454681396484 24.32846832275391 197.1850128173828 20.37478637695312 191.2718353271484 C 16.38324165344238 185.3020629882812 12.95496845245361 178.9201507568359 10.18519592285156 172.3034210205078 C 7.364195823669434 165.5644226074219 5.197604656219482 158.5121002197266 3.745604991912842 151.3423767089844 C 2.25555944442749 143.9847412109375 1.500013947486877 136.4115142822266 1.500013947486877 128.8330993652344 C 1.500013947486877 115.0249252319336 7.163514137268066 95.06687927246094 18.33315086364746 69.51338195800781 C 27.35878753662109 48.8648796081543 39.97969436645508 24.55401611328125 55.84519577026367 -2.743938684463501 C 67.31405639648438 -22.47702980041504 80.18315124511719 -43.28675842285156 94.09501647949219 -64.59507751464844 C 102.5535430908203 -77.55070495605469 109.0351409912109 -87.05609893798828 111.9625778198242 -91.30731964111328 C 112.392578125 -90.66633605957031 112.9306716918945 -89.86769866943359 113.5612411499023 -88.93180084228516 C 122.4496994018555 -75.73975372314453 149.4982452392578 -35.59471130371094 174.6004638671875 8.720833778381348 C 188.8132476806641 33.81215286254883 200.0483703613281 56.12001419067383 207.9938812255859 75.02487945556641 C 217.6192016601562 97.92655944824219 222.4996490478516 116.0302886962891 222.4996490478516 128.8330993652344 C 222.4996490478516 136.4115142822266 221.7441101074219 143.9847412109375 220.2540588378906 151.3423767089844 C 218.8020629882812 158.5121002197266 216.6354675292969 165.5644226074219 213.8144683837891 172.3034210205078 C 211.0446929931641 178.9201507568359 207.6164245605469 185.3020629882812 203.6248779296875 191.2718353271484 C 199.6712341308594 197.1850128173828 195.1307373046875 202.7454681396484 190.1295166015625 207.7987365722656 C 185.1286010742188 212.8517913818359 179.6259155273438 217.4392395019531 173.7743377685547 221.4336547851562 C 167.8672943115234 225.4659729003906 161.5526428222656 228.9291534423828 155.0057373046875 231.7271118164062 C 148.3384246826172 234.5765228271484 141.3612365722656 236.7649230957031 134.2680206298828 238.2315216064453 C 126.9891510009766 239.7365112304688 119.4970626831055 240.4996032714844 111.9998321533203 240.4996032714844 Z M 113.2377014160156 -93.17020416259766 L 110.7073822021484 -94.38836669921875 L 110.752555847168 -94.83307647705078 L 113.4289245605469 -93.54453277587891 L 113.2377014160156 -93.17020416259766 Z"/>
            <path class="cls-6" d="M 111.9499282836914 -88.63893127441406 C 108.6388854980469 -83.80398559570312 102.7521133422852 -75.11109924316406 95.34896850585938 -63.77189636230469 C 81.45124816894531 -42.48512268066406 68.59596252441406 -21.69770812988281 57.14028930664062 -1.987167358398438 C 41.30387878417969 25.26097106933594 28.70947265625 49.51983642578125 19.70692443847656 70.11565399169922 C 8.621017456054688 95.477783203125 3.000015258789062 115.2332000732422 3.000015258789062 128.8330688476562 C 3.000015258789062 136.3116912841797 3.745513916015625 143.7847442626953 5.215744018554688 151.0446014404297 C 6.648284912109375 158.1181030273438 8.785781860351562 165.0756988525391 11.56883239746094 171.7241516113281 C 14.30146789550781 178.2520599365234 17.68374633789062 184.54833984375 21.62173461914062 190.4380645751953 C 25.52243041992188 196.2720184326172 30.00210571289062 201.7579650878906 34.936279296875 206.7435607910156 C 39.86996459960938 211.7286071777344 45.2984619140625 216.2542419433594 51.07106018066406 220.1947326660156 C 56.89764404296875 224.1721038818359 63.1260986328125 227.5880584716797 69.58341979980469 230.3477478027344 C 76.15892028808594 233.1579284667969 83.03996276855469 235.316162109375 90.03541564941406 236.7625579833984 C 97.21451568603516 238.2469177246094 104.6044235229492 238.9995727539062 111.9998321533203 238.9995727539062 C 119.3952407836914 238.9995727539062 126.7851486206055 238.2469177246094 133.9642944335938 236.7625579833984 C 140.9597473144531 235.316162109375 147.8407897949219 233.1579284667969 154.4162902832031 230.3477478027344 C 160.8735961914062 227.5880584716797 167.10205078125 224.1721038818359 172.9286499023438 220.1947326660156 C 178.7012329101562 216.2542419433594 184.1297454833984 211.7286071777344 189.0633850097656 206.7435607910156 C 193.99755859375 201.7579650878906 198.4772338867188 196.2720184326172 202.3779602050781 190.4380645751953 C 206.3159637451172 184.54833984375 209.6982421875 178.2520599365234 212.4308319091797 171.7241516113281 C 215.2138824462891 165.0756988525391 217.3513793945312 158.1181030273438 218.7839202880859 151.0446014404297 C 220.254150390625 143.7847442626953 220.9996490478516 136.3116912841797 220.9996490478516 128.8330688476562 C 220.9996490478516 116.2309265136719 216.1586456298828 98.32273864746094 206.6110534667969 75.60601806640625 C 198.6882476806641 56.75519561767578 187.479248046875 34.50047302246094 173.2953338623047 9.460159301757812 C 148.2217864990234 -34.80476379394531 121.1976928710938 -74.91352844238281 112.3172836303711 -88.09365844726562 C 112.1910858154297 -88.28097534179688 112.068603515625 -88.46275329589844 111.9499282836914 -88.63893127441406 M 112.0002288818359 -94.00045776367188 C 112.000244140625 -94.00044250488281 112.0000228881836 -94.00010681152344 111.9995956420898 -93.99946594238281 C 111.9997863769531 -94.00018310546875 112.0002136230469 -94.00047302246094 112.0002288818359 -94.00045776367188 Z M 111.9995956420898 -93.99946594238281 C 111.8507843017578 -93.53195190429688 223.9996490478516 66.35962677001953 223.9996490478516 128.8330688476562 C 223.9996490478516 191.3331909179688 173.8556518554688 241.9995727539062 111.9998321533203 241.9995727539062 C 50.14405822753906 241.9995727539062 1.52587890625e-05 191.3331909179688 1.52587890625e-05 128.8330688476562 C 1.52587890625e-05 66.48551177978516 111.6973648071289 -93.54731750488281 111.9995956420898 -93.99946594238281 Z"/>
          </g>
        </g>
        <g id="Path_3-4" data-name="Path 3" class="cls-2" transform="translate(0 94)">
          <path class="cls-5" d="M 111.9998321533203 240.4996032714844 C 104.5026016235352 240.4996032714844 97.01051330566406 239.7365112304688 89.73169708251953 238.2315216064453 C 82.63846588134766 236.7649230957031 75.66123962402344 234.5765228271484 68.99391937255859 231.7271118164062 C 62.44705963134766 228.9291534423828 56.13237762451172 225.4659729003906 50.22537612915039 221.4336547851562 C 44.37378692626953 217.4392395019531 38.8711051940918 212.8517913818359 33.87015151977539 207.7987365722656 C 28.86896896362305 202.7454681396484 24.32846832275391 197.1850128173828 20.37478637695312 191.2718353271484 C 16.38324165344238 185.3020629882812 12.95496845245361 178.9201507568359 10.18519592285156 172.3034210205078 C 7.364195823669434 165.5644226074219 5.197604656219482 158.5121002197266 3.745604991912842 151.3423767089844 C 2.25555944442749 143.9847412109375 1.500013947486877 136.4115142822266 1.500013947486877 128.8330993652344 C 1.500013947486877 115.0249252319336 7.163514137268066 95.06687927246094 18.33315086364746 69.51338195800781 C 27.35878753662109 48.8648796081543 39.97969436645508 24.55401611328125 55.84519577026367 -2.743938684463501 C 67.31405639648438 -22.47702980041504 80.18315124511719 -43.28675842285156 94.09501647949219 -64.59507751464844 C 102.5535430908203 -77.55070495605469 109.0351409912109 -87.05609893798828 111.9625778198242 -91.30731964111328 C 112.392578125 -90.66633605957031 112.9306716918945 -89.86769866943359 113.5612411499023 -88.93180084228516 C 122.4496994018555 -75.73975372314453 149.4982452392578 -35.59471130371094 174.6004638671875 8.720833778381348 C 188.8132476806641 33.81215286254883 200.0483703613281 56.12001419067383 207.9938812255859 75.02487945556641 C 217.6192016601562 97.92655944824219 222.4996490478516 116.0302886962891 222.4996490478516 128.8330993652344 C 222.4996490478516 136.4115142822266 221.7441101074219 143.9847412109375 220.2540588378906 151.3423767089844 C 218.8020629882812 158.5121002197266 216.6354675292969 165.5644226074219 213.8144683837891 172.3034210205078 C 211.0446929931641 178.9201507568359 207.6164245605469 185.3020629882812 203.6248779296875 191.2718353271484 C 199.6712341308594 197.1850128173828 195.1307373046875 202.7454681396484 190.1295166015625 207.7987365722656 C 185.1286010742188 212.8517913818359 179.6259155273438 217.4392395019531 173.7743377685547 221.4336547851562 C 167.8672943115234 225.4659729003906 161.5526428222656 228.9291534423828 155.0057373046875 231.7271118164062 C 148.3384246826172 234.5765228271484 141.3612365722656 236.7649230957031 134.2680206298828 238.2315216064453 C 126.9891510009766 239.7365112304688 119.4970626831055 240.4996032714844 111.9998321533203 240.4996032714844 Z M 113.2377014160156 -93.17020416259766 L 110.7073822021484 -94.38836669921875 L 110.752555847168 -94.83307647705078 L 113.4289245605469 -93.54453277587891 L 113.2377014160156 -93.17020416259766 Z"/>
          <path class="cls-5" d="M 111.9499282836914 -88.63893127441406 C 108.6388854980469 -83.80398559570312 102.7521133422852 -75.11109924316406 95.34896850585938 -63.77189636230469 C 81.45124816894531 -42.48512268066406 68.59596252441406 -21.69770812988281 57.14028930664062 -1.987167358398438 C 41.30387878417969 25.26097106933594 28.70947265625 49.51983642578125 19.70692443847656 70.11565399169922 C 8.621017456054688 95.477783203125 3.000015258789062 115.2332000732422 3.000015258789062 128.8330688476562 C 3.000015258789062 136.3116912841797 3.745513916015625 143.7847442626953 5.215744018554688 151.0446014404297 C 6.648284912109375 158.1181030273438 8.785781860351562 165.0756988525391 11.56883239746094 171.7241516113281 C 14.30146789550781 178.2520599365234 17.68374633789062 184.54833984375 21.62173461914062 190.4380645751953 C 25.52243041992188 196.2720184326172 30.00210571289062 201.7579650878906 34.936279296875 206.7435607910156 C 39.86996459960938 211.7286071777344 45.2984619140625 216.2542419433594 51.07106018066406 220.1947326660156 C 56.89764404296875 224.1721038818359 63.1260986328125 227.5880584716797 69.58341979980469 230.3477478027344 C 76.15892028808594 233.1579284667969 83.03996276855469 235.316162109375 90.03541564941406 236.7625579833984 C 97.21451568603516 238.2469177246094 104.6044235229492 238.9995727539062 111.9998321533203 238.9995727539062 C 119.3952407836914 238.9995727539062 126.7851486206055 238.2469177246094 133.9642944335938 236.7625579833984 C 140.9597473144531 235.316162109375 147.8407897949219 233.1579284667969 154.4162902832031 230.3477478027344 C 160.8735961914062 227.5880584716797 167.10205078125 224.1721038818359 172.9286499023438 220.1947326660156 C 178.7012329101562 216.2542419433594 184.1297454833984 211.7286071777344 189.0633850097656 206.7435607910156 C 193.99755859375 201.7579650878906 198.4772338867188 196.2720184326172 202.3779602050781 190.4380645751953 C 206.3159637451172 184.54833984375 209.6982421875 178.2520599365234 212.4308319091797 171.7241516113281 C 215.2138824462891 165.0756988525391 217.3513793945312 158.1181030273438 218.7839202880859 151.0446014404297 C 220.254150390625 143.7847442626953 220.9996490478516 136.3116912841797 220.9996490478516 128.8330688476562 C 220.9996490478516 116.2309265136719 216.1586456298828 98.32273864746094 206.6110534667969 75.60601806640625 C 198.6882476806641 56.75519561767578 187.479248046875 34.50047302246094 173.2953338623047 9.460159301757812 C 148.2217864990234 -34.80476379394531 121.1976928710938 -74.91352844238281 112.3172836303711 -88.09365844726562 C 112.1910858154297 -88.28097534179688 112.068603515625 -88.46275329589844 111.9499282836914 -88.63893127441406 M 112.0002288818359 -94.00045776367188 C 112.000244140625 -94.00044250488281 112.0000228881836 -94.00010681152344 111.9995956420898 -93.99946594238281 C 111.9997863769531 -94.00018310546875 112.0002136230469 -94.00047302246094 112.0002288818359 -94.00045776367188 Z M 111.9995956420898 -93.99946594238281 C 111.8507843017578 -93.53195190429688 223.9996490478516 66.35962677001953 223.9996490478516 128.8330688476562 C 223.9996490478516 191.3331909179688 173.8556518554688 241.9995727539062 111.9998321533203 241.9995727539062 C 50.14405822753906 241.9995727539062 1.52587890625e-05 191.3331909179688 1.52587890625e-05 128.8330688476562 C 1.52587890625e-05 66.48551177978516 111.6973648071289 -93.54731750488281 111.9995956420898 -93.99946594238281 Z"/>
        </g>
        <g class="cls-12" transform="matrix(1, 0, 0, 1, -15, -9)">
          <g id="Path_3-5" data-name="Path 3" class="cls-3" transform="translate(15 103)">
            <path class="cls-5" d="M 111.9998321533203 240.4996032714844 C 104.5026016235352 240.4996032714844 97.01051330566406 239.7365112304688 89.73169708251953 238.2315216064453 C 82.63846588134766 236.7649230957031 75.66123962402344 234.5765228271484 68.99391937255859 231.7271118164062 C 62.44705963134766 228.9291534423828 56.13237762451172 225.4659729003906 50.22537612915039 221.4336547851562 C 44.37378692626953 217.4392395019531 38.8711051940918 212.8517913818359 33.87015151977539 207.7987365722656 C 28.86896896362305 202.7454681396484 24.32846832275391 197.1850128173828 20.37478637695312 191.2718353271484 C 16.38324165344238 185.3020629882812 12.95496845245361 178.9201507568359 10.18519592285156 172.3034210205078 C 7.364195823669434 165.5644226074219 5.197604656219482 158.5121002197266 3.745604991912842 151.3423767089844 C 2.25555944442749 143.9847412109375 1.500013947486877 136.4115142822266 1.500013947486877 128.8330993652344 C 1.500013947486877 115.0249252319336 7.163514137268066 95.06687927246094 18.33315086364746 69.51338195800781 C 27.35878753662109 48.8648796081543 39.97969436645508 24.55401611328125 55.84519577026367 -2.743938684463501 C 67.31405639648438 -22.47702980041504 80.18315124511719 -43.28675842285156 94.09501647949219 -64.59507751464844 C 102.5535430908203 -77.55070495605469 109.0351409912109 -87.05609893798828 111.9625778198242 -91.30731964111328 C 112.392578125 -90.66633605957031 112.9306716918945 -89.86769866943359 113.5612411499023 -88.93180084228516 C 122.4496994018555 -75.73975372314453 149.4982452392578 -35.59471130371094 174.6004638671875 8.720833778381348 C 188.8132476806641 33.81215286254883 200.0483703613281 56.12001419067383 207.9938812255859 75.02487945556641 C 217.6192016601562 97.92655944824219 222.4996490478516 116.0302886962891 222.4996490478516 128.8330993652344 C 222.4996490478516 136.4115142822266 221.7441101074219 143.9847412109375 220.2540588378906 151.3423767089844 C 218.8020629882812 158.5121002197266 216.6354675292969 165.5644226074219 213.8144683837891 172.3034210205078 C 211.0446929931641 178.9201507568359 207.6164245605469 185.3020629882812 203.6248779296875 191.2718353271484 C 199.6712341308594 197.1850128173828 195.1307373046875 202.7454681396484 190.1295166015625 207.7987365722656 C 185.1286010742188 212.8517913818359 179.6259155273438 217.4392395019531 173.7743377685547 221.4336547851562 C 167.8672943115234 225.4659729003906 161.5526428222656 228.9291534423828 155.0057373046875 231.7271118164062 C 148.3384246826172 234.5765228271484 141.3612365722656 236.7649230957031 134.2680206298828 238.2315216064453 C 126.9891510009766 239.7365112304688 119.4970626831055 240.4996032714844 111.9998321533203 240.4996032714844 Z M 113.2377014160156 -93.17020416259766 L 110.7073822021484 -94.38836669921875 L 110.752555847168 -94.83307647705078 L 113.4289245605469 -93.54453277587891 L 113.2377014160156 -93.17020416259766 Z"/>
            <path class="cls-5" d="M 111.9499282836914 -88.63893127441406 C 108.6388854980469 -83.80398559570312 102.7521133422852 -75.11109924316406 95.34896850585938 -63.77189636230469 C 81.45124816894531 -42.48512268066406 68.59596252441406 -21.69770812988281 57.14028930664062 -1.987167358398438 C 41.30387878417969 25.26097106933594 28.70947265625 49.51983642578125 19.70692443847656 70.11565399169922 C 8.621017456054688 95.477783203125 3.000015258789062 115.2332000732422 3.000015258789062 128.8330688476562 C 3.000015258789062 136.3116912841797 3.745513916015625 143.7847442626953 5.215744018554688 151.0446014404297 C 6.648284912109375 158.1181030273438 8.785781860351562 165.0756988525391 11.56883239746094 171.7241516113281 C 14.30146789550781 178.2520599365234 17.68374633789062 184.54833984375 21.62173461914062 190.4380645751953 C 25.52243041992188 196.2720184326172 30.00210571289062 201.7579650878906 34.936279296875 206.7435607910156 C 39.86996459960938 211.7286071777344 45.2984619140625 216.2542419433594 51.07106018066406 220.1947326660156 C 56.89764404296875 224.1721038818359 63.1260986328125 227.5880584716797 69.58341979980469 230.3477478027344 C 76.15892028808594 233.1579284667969 83.03996276855469 235.316162109375 90.03541564941406 236.7625579833984 C 97.21451568603516 238.2469177246094 104.6044235229492 238.9995727539062 111.9998321533203 238.9995727539062 C 119.3952407836914 238.9995727539062 126.7851486206055 238.2469177246094 133.9642944335938 236.7625579833984 C 140.9597473144531 235.316162109375 147.8407897949219 233.1579284667969 154.4162902832031 230.3477478027344 C 160.8735961914062 227.5880584716797 167.10205078125 224.1721038818359 172.9286499023438 220.1947326660156 C 178.7012329101562 216.2542419433594 184.1297454833984 211.7286071777344 189.0633850097656 206.7435607910156 C 193.99755859375 201.7579650878906 198.4772338867188 196.2720184326172 202.3779602050781 190.4380645751953 C 206.3159637451172 184.54833984375 209.6982421875 178.2520599365234 212.4308319091797 171.7241516113281 C 215.2138824462891 165.0756988525391 217.3513793945312 158.1181030273438 218.7839202880859 151.0446014404297 C 220.254150390625 143.7847442626953 220.9996490478516 136.3116912841797 220.9996490478516 128.8330688476562 C 220.9996490478516 116.2309265136719 216.1586456298828 98.32273864746094 206.6110534667969 75.60601806640625 C 198.6882476806641 56.75519561767578 187.479248046875 34.50047302246094 173.2953338623047 9.460159301757812 C 148.2217864990234 -34.80476379394531 121.1976928710938 -74.91352844238281 112.3172836303711 -88.09365844726562 C 112.1910858154297 -88.28097534179688 112.068603515625 -88.46275329589844 111.9499282836914 -88.63893127441406 M 112.0002288818359 -94.00045776367188 C 112.000244140625 -94.00044250488281 112.0000228881836 -94.00010681152344 111.9995956420898 -93.99946594238281 C 111.9997863769531 -94.00018310546875 112.0002136230469 -94.00047302246094 112.0002288818359 -94.00045776367188 Z M 111.9995956420898 -93.99946594238281 C 111.8507843017578 -93.53195190429688 223.9996490478516 66.35962677001953 223.9996490478516 128.8330688476562 C 223.9996490478516 191.3331909179688 173.8556518554688 241.9995727539062 111.9998321533203 241.9995727539062 C 50.14405822753906 241.9995727539062 1.52587890625e-05 191.3331909179688 1.52587890625e-05 128.8330688476562 C 1.52587890625e-05 66.48551177978516 111.6973648071289 -93.54731750488281 111.9995956420898 -93.99946594238281 Z"/>
          </g>
        </g>
        <g id="Path_3-6" data-name="Path 3" class="cls-4" transform="translate(0 94)">
          <path class="cls-5" d="M 111.9998321533203 240.4996032714844 C 104.5026016235352 240.4996032714844 97.01051330566406 239.7365112304688 89.73169708251953 238.2315216064453 C 82.63846588134766 236.7649230957031 75.66123962402344 234.5765228271484 68.99391937255859 231.7271118164062 C 62.44705963134766 228.9291534423828 56.13237762451172 225.4659729003906 50.22537612915039 221.4336547851562 C 44.37378692626953 217.4392395019531 38.8711051940918 212.8517913818359 33.87015151977539 207.7987365722656 C 28.86896896362305 202.7454681396484 24.32846832275391 197.1850128173828 20.37478637695312 191.2718353271484 C 16.38324165344238 185.3020629882812 12.95496845245361 178.9201507568359 10.18519592285156 172.3034210205078 C 7.364195823669434 165.5644226074219 5.197604656219482 158.5121002197266 3.745604991912842 151.3423767089844 C 2.25555944442749 143.9847412109375 1.500013947486877 136.4115142822266 1.500013947486877 128.8330993652344 C 1.500013947486877 115.0249252319336 7.163514137268066 95.06687927246094 18.33315086364746 69.51338195800781 C 27.35878753662109 48.8648796081543 39.97969436645508 24.55401611328125 55.84519577026367 -2.743938684463501 C 67.31405639648438 -22.47702980041504 80.18315124511719 -43.28675842285156 94.09501647949219 -64.59507751464844 C 102.5535430908203 -77.55070495605469 109.0351409912109 -87.05609893798828 111.9625778198242 -91.30731964111328 C 112.392578125 -90.66633605957031 112.9306716918945 -89.86769866943359 113.5612411499023 -88.93180084228516 C 122.4496994018555 -75.73975372314453 149.4982452392578 -35.59471130371094 174.6004638671875 8.720833778381348 C 188.8132476806641 33.81215286254883 200.0483703613281 56.12001419067383 207.9938812255859 75.02487945556641 C 217.6192016601562 97.92655944824219 222.4996490478516 116.0302886962891 222.4996490478516 128.8330993652344 C 222.4996490478516 136.4115142822266 221.7441101074219 143.9847412109375 220.2540588378906 151.3423767089844 C 218.8020629882812 158.5121002197266 216.6354675292969 165.5644226074219 213.8144683837891 172.3034210205078 C 211.0446929931641 178.9201507568359 207.6164245605469 185.3020629882812 203.6248779296875 191.2718353271484 C 199.6712341308594 197.1850128173828 195.1307373046875 202.7454681396484 190.1295166015625 207.7987365722656 C 185.1286010742188 212.8517913818359 179.6259155273438 217.4392395019531 173.7743377685547 221.4336547851562 C 167.8672943115234 225.4659729003906 161.5526428222656 228.9291534423828 155.0057373046875 231.7271118164062 C 148.3384246826172 234.5765228271484 141.3612365722656 236.7649230957031 134.2680206298828 238.2315216064453 C 126.9891510009766 239.7365112304688 119.4970626831055 240.4996032714844 111.9998321533203 240.4996032714844 Z M 113.2377014160156 -93.17020416259766 L 110.7073822021484 -94.38836669921875 L 110.752555847168 -94.83307647705078 L 113.4289245605469 -93.54453277587891 L 113.2377014160156 -93.17020416259766 Z"/>
          <path class="cls-6" d="M 111.9499282836914 -88.63893127441406 C 108.6388854980469 -83.80398559570312 102.7521133422852 -75.11109924316406 95.34896850585938 -63.77189636230469 C 81.45124816894531 -42.48512268066406 68.59596252441406 -21.69770812988281 57.14028930664062 -1.987167358398438 C 41.30387878417969 25.26097106933594 28.70947265625 49.51983642578125 19.70692443847656 70.11565399169922 C 8.621017456054688 95.477783203125 3.000015258789062 115.2332000732422 3.000015258789062 128.8330688476562 C 3.000015258789062 136.3116912841797 3.745513916015625 143.7847442626953 5.215744018554688 151.0446014404297 C 6.648284912109375 158.1181030273438 8.785781860351562 165.0756988525391 11.56883239746094 171.7241516113281 C 14.30146789550781 178.2520599365234 17.68374633789062 184.54833984375 21.62173461914062 190.4380645751953 C 25.52243041992188 196.2720184326172 30.00210571289062 201.7579650878906 34.936279296875 206.7435607910156 C 39.86996459960938 211.7286071777344 45.2984619140625 216.2542419433594 51.07106018066406 220.1947326660156 C 56.89764404296875 224.1721038818359 63.1260986328125 227.5880584716797 69.58341979980469 230.3477478027344 C 76.15892028808594 233.1579284667969 83.03996276855469 235.316162109375 90.03541564941406 236.7625579833984 C 97.21451568603516 238.2469177246094 104.6044235229492 238.9995727539062 111.9998321533203 238.9995727539062 C 119.3952407836914 238.9995727539062 126.7851486206055 238.2469177246094 133.9642944335938 236.7625579833984 C 140.9597473144531 235.316162109375 147.8407897949219 233.1579284667969 154.4162902832031 230.3477478027344 C 160.8735961914062 227.5880584716797 167.10205078125 224.1721038818359 172.9286499023438 220.1947326660156 C 178.7012329101562 216.2542419433594 184.1297454833984 211.7286071777344 189.0633850097656 206.7435607910156 C 193.99755859375 201.7579650878906 198.4772338867188 196.2720184326172 202.3779602050781 190.4380645751953 C 206.3159637451172 184.54833984375 209.6982421875 178.2520599365234 212.4308319091797 171.7241516113281 C 215.2138824462891 165.0756988525391 217.3513793945312 158.1181030273438 218.7839202880859 151.0446014404297 C 220.254150390625 143.7847442626953 220.9996490478516 136.3116912841797 220.9996490478516 128.8330688476562 C 220.9996490478516 116.2309265136719 216.1586456298828 98.32273864746094 206.6110534667969 75.60601806640625 C 198.6882476806641 56.75519561767578 187.479248046875 34.50047302246094 173.2953338623047 9.460159301757812 C 148.2217864990234 -34.80476379394531 121.1976928710938 -74.91352844238281 112.3172836303711 -88.09365844726562 C 112.1910858154297 -88.28097534179688 112.068603515625 -88.46275329589844 111.9499282836914 -88.63893127441406 M 112.0002288818359 -94.00045776367188 C 112.000244140625 -94.00044250488281 112.0000228881836 -94.00010681152344 111.9995956420898 -93.99946594238281 C 111.9997863769531 -94.00018310546875 112.0002136230469 -94.00047302246094 112.0002288818359 -94.00045776367188 Z M 111.9995956420898 -93.99946594238281 C 111.8507843017578 -93.53195190429688 223.9996490478516 66.35962677001953 223.9996490478516 128.8330688476562 C 223.9996490478516 191.3331909179688 173.8556518554688 241.9995727539062 111.9998321533203 241.9995727539062 C 50.14405822753906 241.9995727539062 1.52587890625e-05 191.3331909179688 1.52587890625e-05 128.8330688476562 C 1.52587890625e-05 66.48551177978516 111.6973648071289 -93.54731750488281 111.9995956420898 -93.99946594238281 Z"/>
        </g>
      </g>
      <g class="cls-11" transform="matrix(1, 0, 0, 1, -15, -9)">
        <path id="Path_6-2" data-name="Path 6" d="M12.067,0A12.067,12.067,0,1,1,0,12.067,12.067,12.067,0,0,1,12.067,0Z" transform="translate(55.87 248.87)"/>
      </g>
      <g class="cls-10" transform="matrix(1, 0, 0, 1, -15, -9)">
        <circle id="Ellipse_2-2" data-name="Ellipse 2" cx="11" cy="11" r="11" transform="translate(172 251)"/>
      </g>
      <g class="cls-9" transform="matrix(1, 0, 0, 1, -15, -9)">
        <path id="Path_5-2" data-name="Path 5" d="M230-465.908c3.522-4.813,30.113-3.58,32,0s1.943,31.9-16,31.977S226.478-461.1,230-465.908Z" transform="translate(-118.65 724.5)"/>
      </g>
    </g>
    <g class="cls-8" transform="matrix(1, 0, 0, 1, -536, -669)">
      <path id="Path_42-2" data-name="Path 42" d="M230-468.441c3.522-.96,30.113-.714,32,0s1.943,6.362-16,6.378S226.478-467.481,230-468.441Z" transform="translate(-118.9 729.07)"/>
    </g>
    <g class="cls-7" transform="matrix(1, 0, 0, 1, -536, -669)">
      <path id="Path_43-2" data-name="Path 43" d="M230-434.023c2.934-1.227,28.349-2.085,32,0s1.943-31.9-16-31.977S227.066-432.8,230-434.023Z" transform="translate(-119.15 713.47)"/>
    </g>
  </g>
</svg>
