<svg xmlns="http://www.w3.org/2000/svg" width="27" height="32.955" viewBox="0 0 27 32.955">
  <defs>
    <style>
      .cls-1 {
        fill: none;
        stroke: #fff;
        stroke-linecap: round;
        stroke-linejoin: round;
        stroke-width: 3px;
      }
    </style>
  </defs>
  <path id="Path_2" data-name="Path 2" class="cls-1" d="M60,48h7V36H77.028L77,48h7V28.28L72,18.045,60,28.28Z" transform="translate(-58.5 -16.545)"/>
</svg>
