<svg xmlns="http://www.w3.org/2000/svg" xmlns:xlink="http://www.w3.org/1999/xlink" width="27" height="31.5" viewBox="0 0 27 31.5">
  <defs>
    <style>
      .cls-1, .cls-3, .cls-4, .cls-6 {
        fill: none;
      }

      .cls-1 {
        stroke: #707070;
      }

      .cls-2 {
        clip-path: url(#clip-path);
      }

      .cls-3, .cls-4 {
        stroke: #fff;
      }

      .cls-3 {
        stroke-width: 3px;
      }

      .cls-4 {
        stroke-linecap: round;
        stroke-width: 4px;
      }

      .cls-5 {
        stroke: none;
      }
    </style>
    <clipPath id="clip-path">
      <path id="Path_44" data-name="Path 44" class="cls-1" d="M1038,2188v27h27v-27h-9v9.31h-9.052V2188Z" transform="translate(-912 835)"/>
    </clipPath>
  </defs>
  <g id="Group_40" data-name="Group 40" transform="translate(-126 -3018.5)">
    <g id="Mask_Group_10" data-name="Mask Group 10" class="cls-2">
      <g id="Ellipse_19" data-name="Ellipse 19" class="cls-3" transform="translate(126 3023)">
        <circle class="cls-5" cx="13.5" cy="13.5" r="13.5"/>
        <circle class="cls-6" cx="13.5" cy="13.5" r="12"/>
      </g>
    </g>
    <line id="Line_35" data-name="Line 35" class="cls-4" y1="12" transform="translate(139.5 3020.5)"/>
  </g>
</svg>
